Сильпо ул.Сумская-34 1 0678852243 Пн-Вт-Ср Менеджер,
Сильпо ул.Сумская-34 2 0678852243 Пн-Вт-Ср Менеджер,
Сильпо ул.Сумская-34 3 0678852243 Пн-Вт-Ср Менеджер,
Сильпо ул.Сумская-34 4 0678852243 Пн-Вт-Ср Менеджер,
Сильпо ул. Сумская- 34 5 0678852243 Пн -Вт -Ср Менеджер,
Сильпо, ул. Сумская-34, 6 0678852243, Пн-Вт-Ср, Менеджер,
Сильпо, ул.Сумская-34, 7, 0678852243, Пн-Вт-Ср, Менеджер,
Сильпо, 
ул.Сумская-34, 
8, 
0678852243, 
Пн-Вт-Ср, 
Менеджер,
Сильпо 
ул.Сумская-34 
9 
0678852243 
Пн-Вт-Ср 
Менеджер,
Сильпо ул.Сумская - 34 10 0678852243 Пн-Вт-Ср Менеджер,